<?xml version="1.0" encoding="UTF-8" standalone="no"?>
<!-- Created with Inkscape (http://www.inkscape.org/) -->

<svg
   xmlns:dc="http://purl.org/dc/elements/1.1/"
   xmlns:cc="http://creativecommons.org/ns#"
   xmlns:rdf="http://www.w3.org/1999/02/22-rdf-syntax-ns#"
   xmlns:svg="http://www.w3.org/2000/svg"
   xmlns="http://www.w3.org/2000/svg"
   xmlns:sodipodi="http://sodipodi.sourceforge.net/DTD/sodipodi-0.dtd"
   xmlns:inkscape="http://www.inkscape.org/namespaces/inkscape"
   version="1.0"
   width="745"
   height="483.48999"
   id="svg2"
   sodipodi:version="0.32"
   inkscape:version="0.91 r13725"
   sodipodi:docname="Venusatmosphere-ru.svg"
   inkscape:output_extension="org.inkscape.output.svg.inkscape">
  <metadata
     id="metadata57">
    <rdf:RDF>
      <cc:Work
         rdf:about="">
        <dc:format>image/svg+xml</dc:format>
        <dc:type
           rdf:resource="http://purl.org/dc/dcmitype/StillImage" />
      </cc:Work>
    </rdf:RDF>
  </metadata>
  <sodipodi:namedview
     inkscape:window-height="661"
     inkscape:window-width="1280"
     inkscape:pageshadow="2"
     inkscape:pageopacity="0.0"
     guidetolerance="10.0"
     gridtolerance="10.0"
     objecttolerance="10.0"
     borderopacity="1.0"
     bordercolor="#666666"
     pagecolor="#ffffff"
     id="base"
     showgrid="false"
     inkscape:zoom="2.0653213"
     inkscape:cx="285.16755"
     inkscape:cy="73.057661"
     inkscape:window-x="-8"
     inkscape:window-y="-8"
     inkscape:current-layer="svg2"
     inkscape:window-maximized="1" />
  <defs
     id="defs3">
    <inkscape:perspective
       sodipodi:type="inkscape:persp3d"
       inkscape:vp_x="0 : 241.745 : 1"
       inkscape:vp_y="0 : 1000 : 0"
       inkscape:vp_z="745 : 241.745 : 1"
       inkscape:persp3d-origin="372.5 : 161.16333 : 1"
       id="perspective59" />
  </defs>
  <rect
     width="534.37067"
     height="366.68536"
     x="118.46774"
     y="33.314762"
     style="fill:white;fill-opacity:1;stroke:#060000;stroke-width:4;stroke-linecap:round;stroke-miterlimit:4;stroke-dasharray:none;stroke-opacity:1"
     id="rect3194" />
  <rect
     width="532.66357"
     height="53.851307"
     x="119.11205"
     y="346.18924"
     style="fill:#c6cbf6;fill-opacity:1;stroke:#060000;stroke-width:2.02917123;stroke-linecap:round;stroke-miterlimit:4;stroke-dasharray:none;stroke-opacity:1"
     id="rect4171" />
  <rect
     width="532.41156"
     height="39.395836"
     x="119.41667"
     y="305.04587"
     style="fill:#f87c40;fill-opacity:1;stroke:#060000;stroke-width:2.00011206;stroke-linecap:round;stroke-miterlimit:4;stroke-dasharray:none;stroke-opacity:1"
     id="rect5142" />
  <rect
     width="532.41522"
     height="42.429981"
     x="119.41483"
     y="261.60745"
     style="fill:#fac3a1;fill-opacity:1;stroke:#060000;stroke-width:1.99642146;stroke-linecap:round;stroke-miterlimit:4;stroke-dasharray:none;stroke-opacity:1"
     id="rect5144" />
  <rect
     width="534.1098"
     height="29.641752"
     x="119.13994"
     y="369.77542"
     style="fill:#a200ff;fill-opacity:1;stroke:#060000;stroke-width:1.67131293;stroke-linecap:round;stroke-miterlimit:4;stroke-dasharray:none;stroke-opacity:1"
     id="rect5144-5" />
  <path
     d="M 601.16749,399.63184 C 514.43743,369.13272 374.75822,334.16795 286.14115,302.56726 C 227.93832,281.81222 212.16021,258.42913 215.45923,220.84887 C 216.8319,205.21225 250.12473,159.7404 268.94638,132.50998 C 287.8743,105.12581 291.82932,98.53272 325.4532,54.63185"
     style="fill:none;fill-rule:evenodd;stroke:black;stroke-width:5;stroke-linecap:round;stroke-linejoin:miter;marker-end:none;stroke-miterlimit:4;stroke-dasharray:none;stroke-opacity:1"
     id="path2221" />
  <text
     x="25.433084"
     y="399.12128"
     style="font-size:24px;display:inline;font-family:Arial Unicode MS"
     id="text2278"
     xml:space="preserve"><tspan
       x="25.433084"
       y="399.12128"
       id="tspan2280">0 км</tspan></text>
  <text
     x="18.788553"
     y="314.2684"
     style="font-size:24px;display:inline;font-family:Arial Unicode MS"
     id="text2282"
     xml:space="preserve"><tspan
       x="18.788553"
       y="314.2684"
       id="tspan2284">50 км</tspan></text>
  <text
     x="11.282694"
     y="232.44609"
     style="font-size:24px;display:inline;font-family:Arial Unicode MS"
     id="text2286"
     xml:space="preserve"><tspan
       x="11.282694"
       y="232.44609"
       id="tspan2288">100 км</tspan></text>
  <text
     x="11.282694"
     y="160.7253"
     style="font-size:24px;display:inline;font-family:Arial Unicode MS"
     id="text2290"
     xml:space="preserve"><tspan
       x="11.282694"
       y="160.7253"
       id="tspan2292">150 км</tspan></text>
  <text
     x="12.243631"
     y="79.681694"
     style="font-size:24px;font-family:Arial Unicode MS"
     id="text2294"
     xml:space="preserve"><tspan
       x="12.243631"
       y="79.681694"
       id="tspan2296">200 км</tspan></text>
  <text
     x="-327.72418"
     y="726.83228"
     style="font-size:26.00000572px;font-family:'Arial Unicode MS'"
     id="text2298"
     xml:space="preserve"
     transform="matrix(-0.01145842,-0.99993435,0.99993435,-0.01145842,0,0)"><tspan
       x="-327.72418"
       y="726.83228"
       id="tspan2300">Давление (бар)</tspan></text>
  <text
     x="664.86261"
     y="248.8232"
     style="font-size:18px;display:inline;font-family:Arial Unicode MS"
     id="text2302"
     xml:space="preserve"><tspan
       x="664.86261"
       y="248.8232"
       id="tspan2304">0,01</tspan></text>
  <text
     x="668.90326"
     y="275.0871"
     style="font-size:18px;display:inline;font-family:Arial Unicode MS"
     id="text2306"
     xml:space="preserve"><tspan
       x="668.90326"
       y="275.0871"
       id="tspan2308">0,1</tspan></text>
  <text
     x="676.1507"
     y="312.4628"
     style="font-size:18px;display:inline;font-family:Arial Unicode MS"
     id="text2310"
     xml:space="preserve"><tspan
       x="676.1507"
       y="312.4628"
       id="tspan2312">1</tspan></text>
  <text
     x="674.13037"
     y="350.8486"
     style="font-size:18px;display:inline;font-family:Arial Unicode MS"
     id="text2314"
     xml:space="preserve"><tspan
       x="674.13037"
       y="350.8486"
       id="tspan2316">10</tspan></text>
  <text
     x="672.8053"
     y="406.22989"
     style="font-size:18px;font-family:Arial Unicode MS"
     id="text2318"
     xml:space="preserve"><tspan
       x="672.8053"
       y="406.22989"
       id="tspan2320">90</tspan></text>
  <text
     x="399.72437"
     y="426.8887"
     style="font-size:20px;display:inline;font-family:Arial Unicode MS"
     id="text2322"
     xml:space="preserve"><tspan
       x="399.72437"
       y="426.8887"
       id="tspan2324">200</tspan></text>
  <text
     x="465.64795"
     y="426.8887"
     style="font-size:20px;display:inline;font-family:Arial Unicode MS"
     id="text2326"
     xml:space="preserve"><tspan
       x="465.64795"
       y="426.8887"
       id="tspan2328">300</tspan></text>
  <text
     x="531.74188"
     y="426.8887"
     style="font-size:20px;display:inline;font-family:Arial Unicode MS"
     id="text2330"
     xml:space="preserve"><tspan
       x="531.74188"
       y="426.8887"
       id="tspan2332">400</tspan></text>
  <text
     x="591.87799"
     y="425.8786"
     style="font-size:20px;display:inline;font-family:Arial Unicode MS"
     id="text2334"
     xml:space="preserve"><tspan
       x="591.87799"
       y="425.8786"
       id="tspan2336">500</tspan></text>
  <text
     x="284.85019"
     y="426.8887"
     style="font-size:20px;display:inline;font-family:Arial Unicode MS"
     id="text2338"
     xml:space="preserve"><tspan
       x="284.85019"
       y="426.8887"
       id="tspan2340">0</tspan></text>
  <text
     x="203.78407"
     y="426.8887"
     style="font-size:20px;display:inline;font-family:Arial Unicode MS"
     id="text2342"
     xml:space="preserve"><tspan
       x="203.78407"
       y="426.8887"
       id="tspan2344">-100</tspan></text>
  <text
     x="136.10388"
     y="427.8989"
     style="font-size:20px;display:inline;font-family:Arial Unicode MS"
     id="text2346"
     xml:space="preserve"><tspan
       x="136.10388"
       y="427.8989"
       id="tspan2348">-200</tspan></text>
  <text
     x="337.88174"
     y="426.7081"
     style="font-size:20px;font-family:Arial Unicode MS"
     id="text2350"
     xml:space="preserve"><tspan
       x="337.88174"
       y="426.7081"
       id="tspan2352">100</tspan></text>
  <text
     x="288.71298"
     y="455.72229"
     style="font-size:24px;font-family:Arial Unicode MS"
     id="text2354"
     xml:space="preserve"><tspan
       x="288.71298"
       y="455.72229"
       id="tspan2356">Температура (˚C)</tspan></text>
  <text
     x="121.57087"
     y="362.67422"
     style="font-size:17.48065758px;font-family:'Arial Unicode MS'"
     id="text2360"
     xml:space="preserve"><tspan
       x="121.57087"
       y="362.67422"
       id="tspan2362">Тропосфера</tspan></text>
  <text
     x="395.19125"
     y="329.55597"
     style="font-size:20px;font-family:Arial Unicode MS"
     id="text2364"
     xml:space="preserve"><tspan
       x="395.19125"
       y="329.55597"
       id="tspan2366">Сернокислотный туман</tspan></text>
  <text
     x="365.23026"
     y="254.31812"
     style="font-size:20px;font-family:Arial Unicode MS"
     id="text2368"
     xml:space="preserve"><tspan
       x="365.23026"
       y="254.31812"
       id="tspan2370">Сернокислотные облака</tspan></text>
  <text
     xml:space="preserve"
     style="font-style:normal;font-weight:normal;font-size:18.21836472px;line-height:125%;font-family:sans-serif;letter-spacing:0px;word-spacing:0px;fill:#000000;fill-opacity:1;stroke:none;stroke-width:1px;stroke-linecap:butt;stroke-linejoin:miter;stroke-opacity:1"
     x="665.29779"
     y="377.36035"
     id="text4199"
     sodipodi:linespacing="125%"><tspan
       sodipodi:role="line"
       id="tspan4201"
       x="665.29779"
       y="377.36035">73,8</tspan></text>
  <text
     xml:space="preserve"
     style="font-style:normal;font-weight:normal;font-size:29.37120438px;line-height:100.99999905%;font-family:sans-serif;letter-spacing:0px;word-spacing:0px;fill:#000000;fill-opacity:1;stroke:none;stroke-width:1px;stroke-linecap:butt;stroke-linejoin:miter;stroke-opacity:1"
     x="121.21925"
     y="381.77463"
     id="text4203"
     sodipodi:linespacing="101%"><tspan
       sodipodi:role="line"
       x="121.21925"
       y="381.77463"
       id="tspan4209"
       style="font-size:13.05386925px;line-height:100.99999905%">Полужидкий-полугазообразный океан </tspan><tspan
       sodipodi:role="line"
       x="121.21925"
       y="394.95905"
       style="font-size:13.05386925px;line-height:100.99999905%"
       id="tspan4190">сверхкритического СО<tspan
   style="font-size:13.05386925px;line-height:100.99999905%;baseline-shift:sub"
   id="tspan4207">2</tspan></tspan></text>
</svg>
